^C:\USERS\SHILI\DOCUMENTS\PROGRAMMING\CV\MISIS-IMAGE-PROCESSING\BUILD\PRJ.LAB\LAB01\LAB01.DIR\DEBUG\LAB01.OBJ
C:\USERS\SHILI\DOCUMENTS\PROGRAMMING\CV\MISIS-IMAGE-PROCESSING\BIN.DBG\LAB01.EXE
C:\USERS\SHILI\DOCUMENTS\PROGRAMMING\CV\MISIS-IMAGE-PROCESSING\BIN.DBG\LAB01.ILK
C:\USERS\SHILI\DOCUMENTS\PROGRAMMING\CV\MISIS-IMAGE-PROCESSING\BIN.DBG\LAB01.PDB
